<?xml version="1.0" encoding="UTF-8" standalone="no"?>
<svg
   xmlns:dc="http://purl.org/dc/elements/1.1/"
   xmlns:cc="http://creativecommons.org/ns#"
   xmlns:rdf="http://www.w3.org/1999/02/22-rdf-syntax-ns#"
   xmlns:svg="http://www.w3.org/2000/svg"
   xmlns="http://www.w3.org/2000/svg"
   xmlns:sodipodi="http://sodipodi.sourceforge.net/DTD/sodipodi-0.dtd"
   xmlns:inkscape="http://www.inkscape.org/namespaces/inkscape"
   version="1.1"
   id="Layer_1"
   x="0px"
   y="0px"
   viewBox="0 0 85.07 122.88"
   style="enable-background:new 0 0 85.07 122.88"
   xml:space="preserve"
   sodipodi:docname="keys_white.svg"
   inkscape:version="1.0.2 (e86c870879, 2021-01-15)"><metadata
     id="metadata3042"><rdf:RDF><cc:Work
         rdf:about=""><dc:format>image/svg+xml</dc:format><dc:type
           rdf:resource="http://purl.org/dc/dcmitype/StillImage" /><dc:title></dc:title></cc:Work></rdf:RDF></metadata><defs
     id="defs3040" /><sodipodi:namedview
     pagecolor="#ffffff"
     bordercolor="#666666"
     borderopacity="1"
     objecttolerance="10"
     gridtolerance="10"
     guidetolerance="10"
     inkscape:pageopacity="0"
     inkscape:pageshadow="2"
     inkscape:window-width="3440"
     inkscape:window-height="1426"
     id="namedview3038"
     showgrid="false"
     inkscape:zoom="9.9853516"
     inkscape:cx="42.535"
     inkscape:cy="61.44"
     inkscape:window-x="0"
     inkscape:window-y="14"
     inkscape:window-maximized="0"
     inkscape:current-layer="Layer_1" /><g
     id="g3035"><path
       d="M60.78,43.44c-1.49,0.81-3.35,0.26-4.15-1.22c-0.81-1.49-0.26-3.35,1.23-4.15c7.04-3.82,10.32-8.76,10.98-13.59 c0.35-2.58-0.05-5.17-1.02-7.57c-0.99-2.43-2.56-4.64-4.55-6.42c-3.87-3.46-9.3-5.28-14.97-3.87c-2.3,0.57-4.29,1.72-6.03,3.34 c-1.85,1.72-3.45,3.97-4.85,6.63c-0.79,1.5-2.64,2.07-4.13,1.29c-1.5-0.79-2.07-2.64-1.29-4.13c1.72-3.26,3.73-6.06,6.11-8.28 c2.49-2.31,5.38-3.97,8.74-4.8c7.8-1.93,15.23,0.53,20.51,5.25c2.68,2.4,4.81,5.39,6.15,8.69c1.35,3.33,1.9,6.99,1.39,10.7 C73.99,31.93,69.75,38.57,60.78,43.44L60.78,43.44z M37.32,67.61c-11.6-15.58-11.88-30.34,2.2-44.06l-10.14-5.6 C21.26,14.79,6.36,38.08,12.12,44.3l7.9,11.72l-1.63,3.4c-0.45,1.01-0.01,1.72,1.09,2.21l1.07,0.29L0,102.59l4.16,8.87l8.32-2.45 l2.14-4.16l-2.05-3.84l4.52-0.97L18.14,98l-2.36-3.6l1.55-3.01l4.51-0.57l1.47-2.85l-2.52-3.29l1.61-3.12l4.6-0.75l6.26-11.95 l1.06,0.58C36.16,70.56,37.11,69.84,37.32,67.61L37.32,67.61z M59.15,77.38l-3.06,11.42l-4.25,1.68l-0.89,3.33l3.1,2.63l-0.81,3.03 l-4.2,1.48l-0.86,3.2l3.01,2.95l-0.58,2.17l-4.13,1.87l2.76,3.25l-1.19,4.43l-7.45,4.07l-5.82-7.63l11.1-41.43l-2.69-0.72 c-0.55-0.15-0.89-0.72-0.74-1.28l1.13-4.21c-8.14-6.17-12.17-16.85-9.37-27.32c3.6-13.45,17.18-21.57,30.64-18.55 c0.06,0.72,0.05,1.45-0.05,2.18c-0.25,1.82-1.04,3.69-2.5,5.5c-0.2,0.24-0.41,0.49-0.63,0.73c-4.3-0.28-8.33,2.5-9.49,6.82 c-0.5,1.86-0.39,3.74,0.2,5.43c0.14,0.6,0.37,1.18,0.67,1.75c0.71,1.3,1.75,2.29,2.97,2.92c0.8,0.53,1.7,0.93,2.67,1.2 c4.83,1.29,9.78-1.49,11.22-6.24c1.46-1.29,2.73-2.65,3.82-4.05c2.12-2.73,3.57-5.63,4.43-8.58c5.84,6.3,8.41,15.37,6.02,24.29 c-2.8,10.47-11.65,17.71-21.77,18.98l-1.13,4.21c-0.15,0.55-0.72,0.89-1.28,0.74L59.15,77.38L59.15,77.38z"
       id="path3033" /></g><path
     style="fill:#ffffff;stroke-width:0.100147"
     d="m 37.700618,118.98579 -2.858149,-3.74398 5.548844,-20.708417 c 3.051863,-11.389628 5.537539,-20.719516 5.523722,-20.733083 -0.01382,-0.01357 -0.656045,-0.192435 -1.427174,-0.397486 -1.453948,-0.386619 -1.873412,-0.616505 -1.99279,-1.092143 -0.03154,-0.125668 0.207594,-1.20386 0.545822,-2.460962 0.483512,-1.797084 0.576712,-2.25979 0.473655,-2.351567 -0.07056,-0.06284 -0.488829,-0.410185 -0.929475,-0.771871 -0.970141,-0.796302 -2.674158,-2.541076 -3.548978,-3.63386 -3.014486,-3.76556 -4.991739,-8.58108 -5.51765,-13.438013 -0.156653,-1.446735 -0.0749,-5.132242 0.143987,-6.491181 1.21911,-7.568682 5.412989,-13.959694 11.827107,-18.023214 1.181066,-0.748238 3.623842,-1.938025 5.007124,-2.438787 1.378882,-0.49917 3.538755,-1.041457 5.107481,-1.282354 1.615222,-0.248037 5.628234,-0.254825 7.110416,-0.01203 1.981965,0.324669 2.038181,0.344407 2.112736,0.741824 0.09974,0.531651 -0.139354,2.361896 -0.428139,3.27739 -0.442424,1.402548 -1.30614,2.952233 -2.308684,4.142254 l -0.442941,0.52577 -0.718319,0.0035 c -3.980012,0.01936 -7.573317,2.759248 -8.736023,6.661203 -0.357803,1.20076 -0.448305,3.127729 -0.203612,4.335337 0.691132,3.410874 1.990263,5.116545 5.01011,6.577936 1.508441,0.729978 2.251982,0.893979 4.062451,0.896039 1.20627,0.0014 1.706648,-0.03995 2.244843,-0.185362 1.789318,-0.483461 3.276818,-1.370156 4.526906,-2.698479 0.874515,-0.929244 1.282971,-1.55533 1.810061,-2.774482 0.322146,-0.745118 0.46271,-0.926404 1.577762,-2.034835 3.078712,-3.060437 5.324728,-6.54024 6.570594,-10.17997 0.179113,-0.523267 0.358487,-0.988918 0.39861,-1.034781 0.109099,-0.124705 1.49593,1.603472 2.51605,3.135336 1.011368,1.518722 2.176424,3.814637 2.770924,5.46052 0.498568,1.380295 1.040712,3.540449 1.28185,5.107482 0.231319,1.503242 0.26172,5.512504 0.0524,6.910122 -0.862625,5.759589 -3.165654,10.568903 -6.973467,14.562389 -3.737733,3.919988 -8.929183,6.679327 -14.330519,7.616901 -0.581561,0.100949 -1.082453,0.208614 -1.113096,0.239256 -0.03064,0.03064 -0.321137,1.037851 -0.645543,2.238241 -0.693841,2.567394 -0.773112,2.693642 -1.631969,2.599093 -0.27914,-0.03073 -0.622358,-0.08421 -0.762707,-0.118843 l -0.255177,-0.06297 -1.524155,5.691134 c -0.838285,3.130123 -1.557176,5.704619 -1.597535,5.721102 -0.04036,0.01648 -0.997235,0.40189 -2.126389,0.856461 l -2.053007,0.826494 -0.421775,1.547059 c -0.231976,0.850882 -0.423507,1.624882 -0.425624,1.719998 -0.0033,0.148773 0.486993,0.595773 2.787641,2.541439 l 0.249154,0.21071 -0.396243,1.47953 -0.396241,1.47953 -2.100718,0.74155 -2.100719,0.74155 -0.433621,1.61476 -0.433622,1.61476 1.499176,1.51159 1.499175,1.5116 -0.26471,0.97196 c -0.14559,0.53458 -0.309692,1.01694 -0.364673,1.07192 -0.05498,0.055 -0.956058,0.48844 -2.002396,0.96323 -1.046338,0.4748 -1.938701,0.89847 -1.983028,0.9415 -0.06653,0.0646 0.515512,0.79029 2.514803,3.13554 0.132807,0.15579 0.08701,0.40302 -0.436885,2.35834 l -0.585245,2.18431 -3.619797,1.973 c -1.990888,1.08516 -3.665844,1.97301 -3.722125,1.97301 -0.05628,0 -1.388497,-1.68479 -2.960479,-3.74399 z"
     id="path3044" /><path
     style="fill:#ffffff;stroke-width:0.100147"
     d="M 2.13332,106.99381 0.06784267,102.58837 10.335358,82.271031 c 5.647133,-11.17454 10.267515,-20.338296 10.267515,-20.363906 0,-0.02561 -0.236597,-0.101171 -0.52577,-0.167917 -0.698176,-0.161151 -1.344988,-0.542331 -1.583212,-0.933024 -0.347841,-0.570464 -0.265453,-0.913106 0.703267,-2.924792 l 0.897659,-1.864118 -3.617467,-5.375483 c -1.989607,-2.956516 -3.928394,-5.812557 -4.308415,-6.346759 -1.058503,-1.487953 -1.35445,-2.5762 -1.246649,-4.584146 0.223148,-4.156461 2.957531,-10.183831 6.838846,-15.074798 1.18927,-1.498636 3.769513,-4.048187 4.944822,-4.886003 1.108061,-0.789879 2.677604,-1.589057 3.605281,-1.835733 0.781132,-0.207708 2.10418,-0.230868 2.643663,-0.04628 0.351497,0.12027 10.100692,5.437806 10.313961,5.62558 0.04883,0.04299 -0.455336,0.655617 -1.12036,1.361397 -10.009449,10.622903 -12.008731,21.723447 -6.156305,34.181427 0.990516,2.108498 2.670108,4.929693 4.3226,7.260636 0.916394,1.292628 0.922597,1.305413 0.870422,1.793852 -0.06544,0.612595 -0.420763,1.336481 -0.786397,1.602087 -0.45466,0.330276 -0.974471,0.243032 -2.142747,-0.359632 -0.562628,-0.290237 -1.040285,-0.506281 -1.06146,-0.480098 -0.02117,0.02618 -1.426962,2.7065 -3.12397,5.95626 -1.697009,3.249761 -3.094458,5.919982 -3.105442,5.933826 -0.01098,0.01385 -1.057241,0.193096 -2.325014,0.398338 l -2.305042,0.373167 -0.804911,1.596587 -0.804911,1.596589 1.202947,1.560282 c 0.661622,0.858156 1.220394,1.605348 1.241717,1.660429 0.05774,0.149157 -1.35823,2.853486 -1.496669,2.858446 -0.314053,0.01125 -4.380456,0.569018 -4.412428,0.605228 -0.02013,0.0228 -0.375513,0.71246 -0.789728,1.532571 l -0.75312,1.49111 1.172792,1.793704 1.172793,1.793705 -0.497166,0.97142 c -0.273441,0.534281 -0.505112,0.982011 -0.514825,0.994955 -0.0097,0.01294 -1.006032,0.233752 -2.214042,0.490682 -1.208011,0.25692 -2.225305,0.49419 -2.260655,0.52727 -0.03535,0.0331 0.394396,0.91391 0.954991,1.95742 l 1.019263,1.89729 -0.993031,1.95836 c -0.546167,1.07709 -1.043511,2.01093 -1.105211,2.07518 -0.0617,0.0642 -1.892287,0.64025 -4.0679744,1.28 -2.1756871,0.63974 -4.007631,1.18116 -4.0709865,1.20314 -0.068263,0.0237 -0.9566664,-1.7548 -2.1806691,-4.36547 z"
     id="path3046" /><path
     style="fill:#ffffff;stroke-width:0.100147"
     d="m 58.849194,43.703165 c -0.937234,-0.139026 -1.751635,-0.738848 -2.187533,-1.611155 -0.529171,-1.058966 -0.397553,-2.271062 0.353536,-3.255791 0.142898,-0.187348 0.771179,-0.632764 1.472127,-1.043655 5.862417,-3.436507 9.205193,-7.480269 10.254901,-12.405376 0.258526,-1.212971 0.257694,-4.403009 -0.0015,-5.605817 C 67.449425,13.787943 63.039116,8.8626158 57.214805,6.9094563 53.433526,5.6414192 48.940487,5.890597 45.647672,7.5509538 c -1.05998,0.5344801 -1.496494,0.8120872 -2.461718,1.5655668 -1.92935,1.5060994 -3.759691,3.7699874 -5.370689,6.6428234 -1.039993,1.854585 -1.709509,2.367209 -3.091708,2.367209 -1.224156,0 -2.131115,-0.558787 -2.727181,-1.680242 -0.181695,-0.341846 -0.224973,-0.585891 -0.225945,-1.274086 l -0.0012,-0.851247 0.650953,-1.201567 C 32.778208,12.45855 33.476731,11.308765 33.972457,10.564332 38.516829,3.7400513 44.062035,0.41400296 51.445555,0.08386182 55.88448,-0.11461692 60.689915,1.275032 64.592549,3.8857455 c 1.632957,1.092386 2.54856,1.8600615 3.981129,3.337924 6.042151,6.2331875 8.002054,14.7765515 5.148345,22.4420215 -1.843311,4.951396 -5.91713,9.529355 -11.40805,12.81981 -1.934381,1.159185 -2.505624,1.359943 -3.464779,1.217664 z"
     id="path3048" /></svg>
